Sender: LSF System <lsfadmin@eu-g1-010-2>
Subject: Job 166873957: <python /cluster/home/kard/dl-project/main.py> in cluster <euler> Done

Job <python /cluster/home/kard/dl-project/main.py> was submitted from host <eu-login-28> by user <kard> in cluster <euler> at Wed Mar 24 08:05:47 2021
Job was executed on host(s) <15*eu-g1-010-2>, in queue <bigmem.24h>, as user <kard> in cluster <euler> at Wed Mar 24 08:06:01 2021
</cluster/home/kard> was used as the home directory.
</cluster/home/kard/dl-project> was used as the working directory.
Started at Wed Mar 24 08:06:01 2021
Terminated at Wed Mar 24 08:36:00 2021
Results reported at Wed Mar 24 08:36:00 2021

Your job looked like:

------------------------------------------------------------
# LSBATCH: User input
python /cluster/home/kard/dl-project/main.py
------------------------------------------------------------

Successfully completed.

Resource usage summary:

    CPU time :                                   1782.55 sec.
    Max Memory :                                 95788 MB
    Average Memory :                             86952.13 MB
    Total Requested Memory :                     120000.00 MB
    Delta Memory :                               24212.00 MB
    Max Swap :                                   -
    Max Processes :                              3
    Max Threads :                                4
    Run time :                                   1804 sec.
    Turnaround time :                            1813 sec.

The output (if any) follows:

2021-03-24 08:06:04.289354: I tensorflow/stream_executor/platform/default/dso_loader.cc:49] Successfully opened dynamic library libcudart.so.11.0
(36223, 500, 129)
(36223, 1)
/cluster/apps/nss/gcc-6.3.0/python/3.8.5/x86_64/lib64/python3.8/site-packages/sklearn/svm/_base.py:976: ConvergenceWarning: Liblinear failed to converge, increase the number of iterations.
  warnings.warn("Liblinear failed to converge, increase "
