loss,accuracy,val_loss,val_accuracy
0.48959171772003174,0.7641659379005432,0.4077132046222687,0.8136646151542664
0.33405908942222595,0.8497825860977173,0.377867192029953,0.8336784243583679
0.2564113736152649,0.8899164795875549,0.4272100329399109,0.8187715411186218
0.2106229066848755,0.9112085103988647,0.2535753846168518,0.8893029689788818
0.17804165184497833,0.9277383089065552,0.2906777262687683,0.8799172043800354
0.1459483504295349,0.9401960372924805,0.3096057176589966,0.8868184685707092
0.12497634440660477,0.9493063688278198,0.4230448603630066,0.849965512752533
0.09690847992897034,0.9627648591995239,0.36074167490005493,0.8485852479934692
0.08740556240081787,0.9657671451568604,0.3463291823863983,0.8792270421981812
0.07166788727045059,0.9722893238067627,0.47280818223953247,0.866252601146698
0.06101822480559349,0.9772241115570068,0.3572023808956146,0.8644582629203796
0.052188750356435776,0.9800883531570435,0.40729960799217224,0.8792270421981812
0.048897635191679,0.9815722107887268,0.3702792525291443,0.8935818076133728
0.03979511931538582,0.985575258731842,0.452118843793869,0.8898550868034363
0.037887293845415115,0.9861963987350464,0.4472476541996002,0.8668047189712524
0.0399198904633522,0.9849196076393127,0.43060430884361267,0.8824016451835632
0.031736478209495544,0.9886810779571533,0.41253605484962463,0.8920634984970093
0.03231401741504669,0.9879218935966492,0.5159868001937866,0.8788129687309265
0.03132760152220726,0.9883014559745789,0.5165873765945435,0.8844720721244812
0.025416599586606026,0.9909241199493408,0.4375620186328888,0.8933057188987732
0.0263386033475399,0.9907171130180359,0.5364663600921631,0.8854382038116455
0.028417814522981644,0.989095151424408,0.557522177696228,0.8611456155776978
0.025316722691059113,0.9907171130180359,0.5215002298355103,0.8730158805847168
0.022232677787542343,0.9920974373817444,0.5366979837417603,0.8790889978408813
0.022994784638285637,0.99147629737854,0.5745352506637573,0.8880607485771179
0.021551134064793587,0.9926841259002686,0.6756213307380676,0.8155969381332397
0.021269384771585464,0.9919248819351196,0.4926949143409729,0.8959282040596008
0.02022506482899189,0.9930636882781982,0.4823768436908722,0.8848861455917358
0.01752099022269249,0.9934433102607727,0.5216397047042847,0.8960662484169006
0.020110053941607475,0.9930981993675232,0.6407089829444885,0.8766045570373535
0.01620614342391491,0.994927167892456,0.5293967723846436,0.8964803218841553
0.019722530618309975,0.9929601550102234,0.517539918422699,0.8901311159133911
0.015421850606799126,0.994996190071106,0.5233035087585449,0.8851621747016907
0.020555293187499046,0.992339015007019,0.5541477799415588,0.889164924621582
0.01408736314624548,0.9952032566070557,0.5299205780029297,0.8974465131759644
